[
 {
  "allow_on_submit": 0, 
  "collapsible": 0, 
  "collapsible_depends_on": null, 
  "default": null, 
  "depends_on": null, 
  "description": null, 
  "docstatus": 0, 
  "doctype": "Custom Field", 
  "dt": "Print Settings", 
  "fieldname": "compact_item_print", 
  "fieldtype": "Check", 
  "hidden": 0, 
  "ignore_user_permissions": 0, 
  "ignore_xss_filter": 0, 
  "in_filter": 0, 
  "in_list_view": 0, 
  "in_standard_filter": 0, 
  "insert_after": "with_letterhead", 
  "label": "Compact Item Print", 
  "modified": "2017-03-24 19:07:46.230934", 
  "name": "Print Settings-compact_item_print", 
  "no_copy": 0, 
  "options": null, 
  "permlevel": 0, 
  "precision": "", 
  "print_hide": 0, 
  "print_hide_if_no_value": 0, 
  "print_width": null, 
  "read_only": 0, 
  "report_hide": 0, 
  "reqd": 0, 
  "search_index": 0, 
  "unique": 0, 
  "width": null
 }, 
 {
  "allow_on_submit": 1, 
  "collapsible": 0, 
  "collapsible_depends_on": null, 
  "default": null, 
  "depends_on": "eval:doc.docstatus==1", 
  "description": null, 
  "docstatus": 0, 
  "doctype": "Custom Field", 
  "dt": "Sales Invoice", 
  "fieldname": "credit_note", 
  "fieldtype": "Button", 
  "hidden": 0, 
  "ignore_user_permissions": 0, 
  "ignore_xss_filter": 0, 
  "in_filter": 0, 
  "in_list_view": 0, 
  "in_standard_filter": 0, 
  "insert_after": "offline_pos_name", 
  "label": "Credit Note", 
  "modified": "2017-03-24 19:28:13.118087", 
  "name": "Sales Invoice-credit_note", 
  "no_copy": 0, 
  "options": null, 
  "permlevel": 0, 
  "precision": "", 
  "print_hide": 0, 
  "print_hide_if_no_value": 0, 
  "print_width": null, 
  "read_only": 0, 
  "report_hide": 0, 
  "reqd": 0, 
  "search_index": 0, 
  "unique": 0, 
  "width": null
 }
]